<?xml version="1.0" encoding="utf-8"?>
<!-- Generator: Adobe Illustrator 16.0.0, SVG Export Plug-In . SVG Version: 6.00 Build 0)  -->
<!DOCTYPE svg PUBLIC "-//W3C//DTD SVG 1.1//EN" "http://www.w3.org/Graphics/SVG/1.1/DTD/svg11.dtd">
<svg version="1.1" id="Layer_1" xmlns="http://www.w3.org/2000/svg" xmlns:xlink="http://www.w3.org/1999/xlink" x="0px" y="0px"
	 width="300px" height="300px" viewBox="0 0 300 300" enable-background="new 0 0 300 300" xml:space="preserve">
<path d="M170.81,149.995l89.444-89.435c5.747-5.748,5.747-15.061,0-20.809c-5.749-5.748-15.062-5.748-20.811,0l-89.443,89.434
	L60.556,39.751c-5.748-5.748-15.062-5.748-20.81,0c-5.749,5.749-5.749,15.061,0,20.809l89.445,89.435l-89.445,89.443
	c-5.749,5.75-5.749,15.062,0,20.81c5.748,5.747,15.062,5.747,20.81,0l89.445-89.445l89.443,89.445
	c2.878,2.877,6.642,4.31,10.405,4.31s7.529-1.438,10.405-4.31c5.747-5.748,5.747-15.06,0-20.81L170.81,149.995z"/>
</svg>
